        {
            "name": "libretro-dolphin",
            "buildsystem": "cmake",
            "config-opts": [
                "-DLIBRETRO=ON",
                "-DLIBRETRO_STATIC=1",
                "-DENABLE_QT=0",
                "-DCMAKE_BUILD_TYPE=Release"
            ],
            "no-make-install": true,
            "post-install": [
                "mkdir -p /app/lib/libretro/",
                "install -m644 -p dolphin_libretro.so /app/lib/libretro/",
                "install -m644 -p dolphin.libretro /app/lib/libretro/",

                "mkdir -p /app/share/gnome-games/system/GameCube/dolphin-emu",
                "cp -R Data/Sys /app/share/gnome-games/system/GameCube/dolphin-emu/",

                "mkdir -p /app/share/gnome-games/system/Wii",
                "mkdir -p /app/share/gnome-games/system/WiiWare",

                "ln -s ../GameCube/dolphin-emu /app/share/gnome-games/system/Wii",
                "ln -s ../GameCube/dolphin-emu /app/share/gnome-games/system/WiiWare"
            ],
            "sources": [
                {
                    "type": "git",
                    "url": "https://github.com/libretro/dolphin.git"
                },
                {
                    "type": "file",
                    "path": "dolphin.libretro"
                }
            ]
        }
