{
    "app-id" : "org.gnome.GamesDevel",
    "runtime" : "org.gnome.Platform",
    "runtime-version" : "master",
    "sdk" : "org.gnome.Sdk",
    "command" : "gnome-games",
    "tags" : [
        "devel",
        "development",
        "nightly"
    ],
    "finish-args" : [
        "--share=ipc",
        "--socket=x11",
        "--socket=wayland",
        "--device=dri",
        "--socket=pulseaudio",
        "--talk-name=org.freedesktop.Tracker1",
        "--env=TRACKER_SPARQL_BACKEND=bus",
        "--share=network",
        "--device=all",
        "--talk-name=org.freedesktop.Flatpak",
        "--filesystem=host:ro",
        "--filesystem=~/.var/app/com.valvesoftware.Steam:ro",
        "--metadata=X-DConf=migrate-path=/org/gnome/Games/"
    ],
    "add-extensions": {
        "org.gnome.Games.LibretroPlugin": {
            "version": "stable",
            "directory": "lib/libretro/extra.d",
            "subdirectories": true,
            "no-autodownload": true,
            "autodelete": true
        }
    },
    "cleanup" : [
        "/include",
        "/lib/pkgconfig",
        "/share/pkgconfig",
        "/share/aclocal",
        "/man",
        "/share/man",
        "/share/gtk-doc",
        "*.la",
        "*.a",
        "/lib/girepository-1.0",
        "/share/doc",
        "/share/gir-1.0"
    ],
    "modules" : [
        "shared-modules/lua5.3/lua-5.3.5.json",
        "shared-modules/SDL/SDL-1.2.15.json",
        "shared-modules/SDL/SDL_net-1.2.8.json",
        "libretro-cores/libretro-blastem.json",
        "libretro-cores/libretro-bsnes-mercury.json",
        "libretro-cores/libretro-citra.json",
        "libretro-cores/libretro-desmume2015.json",
        "libretro-cores/libretro-dolphin.json",
        "libretro-cores/libretro-dosbox_svn.json",
        "libretro-cores/libretro-flycast.json",
        "libretro-cores/libretro-gambatte.json",
        "libretro-cores/libretro-gearsystem.json",
        "libretro-cores/libretro-handy.json",
        "libretro-cores/libretro-mednafen_ngp.json",
        "libretro-cores/libretro-mednafen_pce_fast.json",
        "libretro-cores/libretro-mednafen_saturn.json",
        "libretro-cores/libretro-mednafen_vb.json",
        "libretro-cores/libretro-mednafen_wswan.json",
        "libretro-cores/libretro-mgba.json",
        "libretro-cores/libretro-nestopia.json",
        "libretro-cores/libretro-parallel_n64.json",
        "libretro-cores/libretro-pcsx_rearmed.json",
        "libretro-cores/libretro-prboom.json",
        "libretro-cores/libretro-prosystem.json",
        "libretro-cores/libretro-stella2014.json",
        {
            "name" : "libretro-extra",
            "buildsystem" : "simple",
            "build-commands": [
                "mkdir -p /app/lib/libretro/extra.d"
            ]
        },
        {
            "name" : "tracker",
            "buildsystem" : "meson",
            "config-opts" : [
                "-Ddocs=false",
                "-Dfts=false",
                "-Dfunctional_tests=false",
                "-Djournal=false",
                "-Dnetwork_manager=disabled",
                "-Dstemmer=disabled",
                "-Dbash_completion=no",
                "-Ddbus_services=/app/share/dbus-1/services",
                "-Dsystemd_user_services=no"
            ],
            "sources" : [
                {
                    "type" : "git",
                    "url" : "https://gitlab.gnome.org/GNOME/tracker.git",
                    "branch" : "tracker-2.3"
                }
            ]
        },
        {
            "name" : "grilo",
            "buildsystem" : "meson",
            "config-opts" : [
                "-Denable-grl-net=true",
                "-Denable-grl-pls=false",
                "-Denable-gtk-doc=false",
                "-Denable-test-ui=false"
            ],
            "sources" : [
                {
                    "type" : "git",
                    "url" : "https://gitlab.gnome.org/GNOME/grilo.git"
                }
            ],
            "cleanup" : [
                "/include",
                "/bin"
            ]
        },
        {
            "name" : "grilo-plugins",
            "buildsystem" : "meson",
            "config-opts" : [
                "-Denable-filesystem=no",
                "-Denable-optical-media=no",
                "-Denable-youtube=no",
                "-Denable-bookmarks=no",
                "-Denable-metadata-store=no",
                "-Denable-vimeo=no",
                "-Denable-tracker=no",
                "-Denable-local-metadata=no",
                "-Denable-dleyna=no",
                "-Denable-thetvdb=no",
                "-Denable-tmdb=no",
                "-Denable-freebox=no",
                "-Denable-opensubtitles=no",
                "-Denable-gravatar=no",
                "-Denable-jamendo=no",
                "-Denable-raitv=no",
                "-Denable-magnatune=no",
                "-Denable-shoutcast=no",
                "-Denable-dmap=no",
                "-Denable-flickr=no",
                "-Denable-podcasts=no",
                "-Denable-chromaprint=no",
                "-Denable-lua-factory=yes",
                "--wrap-mode=nodownload"
            ],
            "sources" : [
                {
                    "type" : "git",
                    "url" : "https://gitlab.gnome.org/GNOME/grilo-plugins.git"
                }
            ],
            "cleanup" : [
                "/include"
            ]
        },
        {
            "name" : "libevdev",
            "buildsystem" : "meson",
            "config-opts" : [
                "-Dtests=disabled",
                "-Ddocumentation=disabled"
            ],
            "sources" : [
                {
                    "type" : "git",
                    "url" : "https://gitlab.freedesktop.org/libevdev/libevdev.git"
                }
            ]
        },
        {
            "name" : "manette",
            "buildsystem" : "meson",
            "config-opts" : [
                "-Dgudev=disabled"
            ],
            "sources" : [
                {
                    "type" : "git",
                    "url" : "https://gitlab.gnome.org/GNOME/libmanette.git"
                }
            ]
        },
        {
            "name" : "retro-gtk",
            "buildsystem" : "meson",
            "sources" : [
                {
                    "type" : "git",
                    "url" : "https://gitlab.gnome.org/GNOME/retro-gtk.git"
                }
            ]
        },
        {
            "name" : "gnome-games",
            "buildsystem" : "meson",
            "builddir" : true,
            "config-opts" : [
                "-Dprofile=development"
            ],
            "sources" : [
                {
                    "type" : "git",
                    "url" : "https://gitlab.gnome.org/GNOME/gnome-games.git"
                }
            ]
        }
    ]
}
